[
    {
        "conductive": "no",
        "flutes": "0",
        "group": "Endmill",
        "name": "1/8\" FEM Delrin ",
        "params": [
            {
                "millVersion": "V1",
                "pass_depth": 0.20999999999999999,
                "spindle_speed": 12000,
                "stepover": 0.45000000000000001,
                "xy_feed_rate": 600,
                "z_feed_rate": 40
            },
            {
                "millVersion": "V2",
                "pass_depth": 0.20999999999999999,
                "spindle_speed": 12000,
                "stepover": 0.45000000000000001,
                "xy_feed_rate": 600,
                "z_feed_rate": 40
            },
            {
                "millVersion": "Pro",
                "pass_depth": 0.20999999999999999,
                "spindle_speed": 12000,
                "stepover": 0.45000000000000001,
                "xy_feed_rate": 600,
                "z_feed_rate": 40
            },
            {
                "millVersion": "Bantam",
                "pass_depth": 0.20999999999999999,
                "spindle_speed": 12000,
                "stepover": 0.45000000000000001,
                "xy_feed_rate": 600,
                "z_feed_rate": 40
            },
            {
                "millVersion": "Bantam_esc",
                "pass_depth": 0.20999999999999999,
                "spindle_speed": 12000,
                "stepover": 0.45000000000000001,
                "xy_feed_rate": 600,
                "z_feed_rate": 40
            }
        ],
        "profile": [
            [
                3.1749999999999998,
                36.5,
                0,
                0
            ],
            [
                3.1749999999999998,
                2.5874999999999999,
                0,
                -1
            ],
            [
                3.1699999999999999,
                1.5874999999999999,
                0,
                1
            ],
            [
                3.1699999999999999,
                0,
                0,
                1
            ]
        ],
        "uuid": "{adebe20a-7b89-43fb-a8f9-4c2f2408522b}"
    },
    {
        "conductive": "no",
        "flutes": "0",
        "group": "Endmill",
        "name": "1/8\" FEM Delrin Adv",
        "params": [
            {
                "millVersion": "V1",
                "pass_depth": 0.5,
                "spindle_speed": 16400,
                "stepover": 0.45000000000000001,
                "xy_feed_rate": 1500,
                "z_feed_rate": 127
            },
            {
                "millVersion": "V2",
                "pass_depth": 0.5,
                "spindle_speed": 16400,
                "stepover": 0.45000000000000001,
                "xy_feed_rate": 1500,
                "z_feed_rate": 127
            },
            {
                "millVersion": "Pro",
                "pass_depth": 0.5,
                "spindle_speed": 16400,
                "stepover": 0.45000000000000001,
                "xy_feed_rate": 1500,
                "z_feed_rate": 127
            },
            {
                "millVersion": "Bantam",
                "pass_depth": 0.5,
                "spindle_speed": 16400,
                "stepover": 0.45000000000000001,
                "xy_feed_rate": 1500,
                "z_feed_rate": 127
            },
            {
                "millVersion": "Bantam_esc",
                "pass_depth": 0.5,
                "spindle_speed": 16400,
                "stepover": 0.45000000000000001,
                "xy_feed_rate": 1500,
                "z_feed_rate": 127
            }
        ],
        "profile": [
            [
                3.1749999999999998,
                36.5,
                0,
                0
            ],
            [
                3.1749999999999998,
                2.5874999999999999,
                0,
                -1
            ],
            [
                3.1699999999999999,
                1.5874999999999999,
                0,
                1
            ],
            [
                3.1699999999999999,
                0,
                0,
                1
            ]
        ],
        "uuid": "{e6fd8bf0-9a61-455e-88a1-eef39ee5d423}"
    },
    {
        "conductive": "no",
        "flutes": "0",
        "group": "Endmill",
        "name": "1/16\" FEM Delrin",
        "params": [
            {
                "millVersion": "V1",
                "pass_depth": 0.20999999999999999,
                "spindle_speed": 12000,
                "stepover": 0.45000000000000001,
                "xy_feed_rate": 600,
                "z_feed_rate": 40
            },
            {
                "millVersion": "V2",
                "pass_depth": 0.20999999999999999,
                "spindle_speed": 12000,
                "stepover": 0.45000000000000001,
                "xy_feed_rate": 600,
                "z_feed_rate": 40
            },
            {
                "millVersion": "Pro",
                "pass_depth": 0.20999999999999999,
                "spindle_speed": 12000,
                "stepover": 0.45000000000000001,
                "xy_feed_rate": 600,
                "z_feed_rate": 40
            },
            {
                "millVersion": "Bantam",
                "pass_depth": 0.20999999999999999,
                "spindle_speed": 12000,
                "stepover": 0.45000000000000001,
                "xy_feed_rate": 600,
                "z_feed_rate": 40
            },
            {
                "millVersion": "Bantam_esc",
                "pass_depth": 0.20999999999999999,
                "spindle_speed": 12000,
                "stepover": 0.45000000000000001,
                "xy_feed_rate": 600,
                "z_feed_rate": 40
            }
        ],
        "profile": [
            [
                3.1749999999999998,
                36.5,
                0,
                0
            ],
            [
                3.1749999999999998,
                2.5874999999999999,
                0,
                -1
            ],
            [
                1.5900000000000001,
                1.5874999999999999,
                0,
                1
            ],
            [
                1.5900000000000001,
                0,
                0,
                1
            ]
        ],
        "uuid": "{45ec51d9-fc7f-4a54-9b25-4e09c3518a58}"
    },
    {
        "conductive": "no",
        "flutes": "0",
        "group": "Endmill",
        "name": "1/16\" FEM Delrin Adv",
        "params": [
            {
                "millVersion": "V1",
                "pass_depth": 0.5,
                "spindle_speed": 16400,
                "stepover": 0.45000000000000001,
                "xy_feed_rate": 1500,
                "z_feed_rate": 127
            },
            {
                "millVersion": "V2",
                "pass_depth": 0.5,
                "spindle_speed": 16400,
                "stepover": 0.45000000000000001,
                "xy_feed_rate": 1500,
                "z_feed_rate": 127
            },
            {
                "millVersion": "Pro",
                "pass_depth": 0.5,
                "spindle_speed": 16400,
                "stepover": 0.45000000000000001,
                "xy_feed_rate": 1500,
                "z_feed_rate": 127
            },
            {
                "millVersion": "Bantam",
                "pass_depth": 0.5,
                "spindle_speed": 16400,
                "stepover": 0.45000000000000001,
                "xy_feed_rate": 1500,
                "z_feed_rate": 127
            },
            {
                "millVersion": "Bantam_esc",
                "pass_depth": 0.5,
                "spindle_speed": 16400,
                "stepover": 0.45000000000000001,
                "xy_feed_rate": 1500,
                "z_feed_rate": 127
            }
        ],
        "profile": [
            [
                3.1749999999999998,
                36.5,
                0,
                0
            ],
            [
                3.1749999999999998,
                2.5874999999999999,
                0,
                -1
            ],
            [
                1.5900000000000001,
                1.5874999999999999,
                0,
                1
            ],
            [
                1.5900000000000001,
                0,
                0,
                1
            ]
        ],
        "uuid": "{02a449e3-67fb-4c9c-9e88-f7435ffc1acf}"
    },
    {
        "conductive": "no",
        "flutes": "0",
        "group": "Endmill",
        "name": "1/32\" FEM Delrin",
        "params": [
            {
                "millVersion": "V1",
                "pass_depth": 0.20999999999999999,
                "spindle_speed": 12000,
                "stepover": 0.45000000000000001,
                "xy_feed_rate": 600,
                "z_feed_rate": 40
            },
            {
                "millVersion": "V2",
                "pass_depth": 0.20999999999999999,
                "spindle_speed": 12000,
                "stepover": 0.45000000000000001,
                "xy_feed_rate": 600,
                "z_feed_rate": 40
            },
            {
                "millVersion": "Pro",
                "pass_depth": 0.20999999999999999,
                "spindle_speed": 12000,
                "stepover": 0.45000000000000001,
                "xy_feed_rate": 600,
                "z_feed_rate": 40
            },
            {
                "millVersion": "Bantam",
                "pass_depth": 0.20999999999999999,
                "spindle_speed": 12000,
                "stepover": 0.45000000000000001,
                "xy_feed_rate": 600,
                "z_feed_rate": 40
            },
            {
                "millVersion": "Bantam_esc",
                "pass_depth": 0.20999999999999999,
                "spindle_speed": 12000,
                "stepover": 0.45000000000000001,
                "xy_feed_rate": 600,
                "z_feed_rate": 40
            }
        ],
        "profile": [
            [
                3.1749999999999998,
                36.5,
                0,
                0
            ],
            [
                3.1749999999999998,
                2.5874999999999999,
                0,
                -1
            ],
            [
                0.79000000000000004,
                1.5874999999999999,
                0,
                1
            ],
            [
                0.79000000000000004,
                0,
                0,
                1
            ]
        ],
        "uuid": "{8aabf141-ac01-46bc-b387-ffbe806c4740}"
    },
    {
        "conductive": "no",
        "flutes": "0",
        "group": "Endmill",
        "name": "1/32\" FEM Delrin Adv",
        "params": [
            {
                "millVersion": "V1",
                "pass_depth": 0.5,
                "spindle_speed": 16400,
                "stepover": 0.45000000000000001,
                "xy_feed_rate": 1500,
                "z_feed_rate": 127
            },
            {
                "millVersion": "V2",
                "pass_depth": 0.5,
                "spindle_speed": 16400,
                "stepover": 0.45000000000000001,
                "xy_feed_rate": 1500,
                "z_feed_rate": 127
            },
            {
                "millVersion": "Pro",
                "pass_depth": 0.5,
                "spindle_speed": 16400,
                "stepover": 0.45000000000000001,
                "xy_feed_rate": 1500,
                "z_feed_rate": 127
            },
            {
                "millVersion": "Bantam",
                "pass_depth": 0.5,
                "spindle_speed": 16400,
                "stepover": 0.45000000000000001,
                "xy_feed_rate": 1500,
                "z_feed_rate": 127
            },
            {
                "millVersion": "Bantam_esc",
                "pass_depth": 0.5,
                "spindle_speed": 16400,
                "stepover": 0.45000000000000001,
                "xy_feed_rate": 1500,
                "z_feed_rate": 127
            }
        ],
        "profile": [
            [
                3.1749999999999998,
                36.5,
                0,
                0
            ],
            [
                3.1749999999999998,
                2.5874999999999999,
                0,
                -1
            ],
            [
                0.79000000000000004,
                1.5874999999999999,
                0,
                1
            ],
            [
                0.79000000000000004,
                0,
                0,
                1
            ]
        ],
        "uuid": "{c48dcbb4-fa9b-4d54-9a7b-9421e3d704d2}"
    },
    {
        "conductive": "no",
        "flutes": "0",
        "group": "Endmill",
        "name": "1/64\" FEM Delrin",
        "params": [
            {
                "millVersion": "V1",
                "pass_depth": 0.080000000000000002,
                "spindle_speed": 12000,
                "stepover": 0.45000000000000001,
                "xy_feed_rate": 600,
                "z_feed_rate": 40
            },
            {
                "millVersion": "V2",
                "pass_depth": 0.080000000000000002,
                "spindle_speed": 12000,
                "stepover": 0.45000000000000001,
                "xy_feed_rate": 600,
                "z_feed_rate": 40
            },
            {
                "millVersion": "Pro",
                "pass_depth": 0.080000000000000002,
                "spindle_speed": 12000,
                "stepover": 0.45000000000000001,
                "xy_feed_rate": 600,
                "z_feed_rate": 40
            },
            {
                "millVersion": "Bantam",
                "pass_depth": 0.080000000000000002,
                "spindle_speed": 12000,
                "stepover": 0.45000000000000001,
                "xy_feed_rate": 600,
                "z_feed_rate": 40
            },
            {
                "millVersion": "Bantam_esc",
                "pass_depth": 0.080000000000000002,
                "spindle_speed": 12000,
                "stepover": 0.45000000000000001,
                "xy_feed_rate": 600,
                "z_feed_rate": 40
            }
        ],
        "profile": [
            [
                3.1749999999999998,
                36.5,
                0,
                0
            ],
            [
                3.1749999999999998,
                2.5874999999999999,
                0,
                -1
            ],
            [
                0.40000000000000002,
                1.5874999999999999,
                0,
                1
            ],
            [
                0.40000000000000002,
                0,
                0,
                1
            ]
        ],
        "uuid": "{7a78ac34-2486-405e-a40c-8b3aa0f5f188}"
    },
    {
        "conductive": "no",
        "flutes": "0",
        "group": "Endmill",
        "name": "1/64\" FEM Delrin Adv",
        "params": [
            {
                "millVersion": "V1",
                "pass_depth": 0.25,
                "spindle_speed": 16400,
                "stepover": 0.45000000000000001,
                "xy_feed_rate": 1500,
                "z_feed_rate": 127
            },
            {
                "millVersion": "V2",
                "pass_depth": 0.25,
                "spindle_speed": 16400,
                "stepover": 0.45000000000000001,
                "xy_feed_rate": 1500,
                "z_feed_rate": 127
            },
            {
                "millVersion": "Pro",
                "pass_depth": 0.25,
                "spindle_speed": 16400,
                "stepover": 0.45000000000000001,
                "xy_feed_rate": 1500,
                "z_feed_rate": 127
            },
            {
                "millVersion": "Bantam",
                "pass_depth": 0.25,
                "spindle_speed": 16400,
                "stepover": 0.45000000000000001,
                "xy_feed_rate": 1500,
                "z_feed_rate": 127
            },
            {
                "millVersion": "Bantam_esc",
                "pass_depth": 0.25,
                "spindle_speed": 16400,
                "stepover": 0.45000000000000001,
                "xy_feed_rate": 1500,
                "z_feed_rate": 127
            }
        ],
        "profile": [
            [
                3.1749999999999998,
                36.5,
                0,
                0
            ],
            [
                3.1749999999999998,
                2.5874999999999999,
                0,
                -1
            ],
            [
                0.40000000000000002,
                1.5874999999999999,
                0,
                1
            ],
            [
                0.40000000000000002,
                0,
                0,
                1
            ]
        ],
        "uuid": "{f135ed16-3462-40c4-bd0c-80f70199ec56}"
    },
    {
        "conductive": "no",
        "flutes": "0",
        "group": "Endmill",
        "name": "1/100\" FEM Delrin ",
        "params": [
            {
                "millVersion": "V1",
                "pass_depth": 0.080000000000000002,
                "spindle_speed": 12000,
                "stepover": 0.45000000000000001,
                "xy_feed_rate": 600,
                "z_feed_rate": 40
            },
            {
                "millVersion": "V2",
                "pass_depth": 0.080000000000000002,
                "spindle_speed": 12000,
                "stepover": 0.45000000000000001,
                "xy_feed_rate": 600,
                "z_feed_rate": 40
            },
            {
                "millVersion": "Pro",
                "pass_depth": 0.080000000000000002,
                "spindle_speed": 12000,
                "stepover": 0.45000000000000001,
                "xy_feed_rate": 600,
                "z_feed_rate": 40
            },
            {
                "millVersion": "Bantam",
                "pass_depth": 0.080000000000000002,
                "spindle_speed": 12000,
                "stepover": 0.45000000000000001,
                "xy_feed_rate": 600,
                "z_feed_rate": 40
            },
            {
                "millVersion": "Bantam_esc",
                "pass_depth": 0.080000000000000002,
                "spindle_speed": 12000,
                "stepover": 0.45000000000000001,
                "xy_feed_rate": 600,
                "z_feed_rate": 40
            }
        ],
        "profile": [
            [
                3.1749999999999998,
                36.5,
                0,
                0
            ],
            [
                3.1749999999999998,
                2.5874999999999999,
                0,
                -1
            ],
            [
                0.25,
                1.5874999999999999,
                0,
                1
            ],
            [
                0.25,
                0,
                0,
                1
            ]
        ],
        "uuid": "{883955ec-30df-4a48-bc26-b599aedc1437}"
    },
    {
        "conductive": "no",
        "flutes": "0",
        "group": "Endmill",
        "name": "1/100\" FEM Delrin Adv",
        "params": [
            {
                "millVersion": "V1",
                "pass_depth": 0.13,
                "spindle_speed": 16400,
                "stepover": 0.45000000000000001,
                "xy_feed_rate": 1500,
                "z_feed_rate": 127
            },
            {
                "millVersion": "V2",
                "pass_depth": 0.13,
                "spindle_speed": 16400,
                "stepover": 0.45000000000000001,
                "xy_feed_rate": 1500,
                "z_feed_rate": 127
            },
            {
                "millVersion": "Pro",
                "pass_depth": 0.13,
                "spindle_speed": 16400,
                "stepover": 0.45000000000000001,
                "xy_feed_rate": 1500,
                "z_feed_rate": 127
            },
            {
                "millVersion": "Bantam",
                "pass_depth": 0.13,
                "spindle_speed": 16400,
                "stepover": 0.45000000000000001,
                "xy_feed_rate": 1500,
                "z_feed_rate": 127
            },
            {
                "millVersion": "Bantam_esc",
                "pass_depth": 0.13,
                "spindle_speed": 16400,
                "stepover": 0.45000000000000001,
                "xy_feed_rate": 1500,
                "z_feed_rate": 127
            }
        ],
        "profile": [
            [
                3.1749999999999998,
                36.5,
                0,
                0
            ],
            [
                3.1749999999999998,
                2.5874999999999999,
                0,
                -1
            ],
            [
                0.25,
                1.5874999999999999,
                0,
                1
            ],
            [
                0.25,
                0,
                0,
                1
            ]
        ],
        "uuid": "{bda39e62-0b0b-45d0-acc1-507362c959d3}"
    },
    {
        "conductive": "no",
        "flutes": "0",
        "group": "Engraving",
        "name": "30º Eng Delrin ",
        "params": [
            {
                "millVersion": "V1",
                "pass_depth": 0.080000000000000002,
                "spindle_speed": 12000,
                "stepover": 0.45000000000000001,
                "xy_feed_rate": 600,
                "z_feed_rate": 40
            },
            {
                "millVersion": "V2",
                "pass_depth": 0.080000000000000002,
                "spindle_speed": 12000,
                "stepover": 0.45000000000000001,
                "xy_feed_rate": 600,
                "z_feed_rate": 40
            },
            {
                "millVersion": "Pro",
                "pass_depth": 0.080000000000000002,
                "spindle_speed": 12000,
                "stepover": 0.45000000000000001,
                "xy_feed_rate": 600,
                "z_feed_rate": 40
            },
            {
                "millVersion": "Bantam",
                "pass_depth": 0.080000000000000002,
                "spindle_speed": 12000,
                "stepover": 0.45000000000000001,
                "xy_feed_rate": 600,
                "z_feed_rate": 40
            },
            {
                "millVersion": "Bantam_esc",
                "pass_depth": 0.080000000000000002,
                "spindle_speed": 12000,
                "stepover": 0.45000000000000001,
                "xy_feed_rate": 600,
                "z_feed_rate": 40
            }
        ],
        "profile": [
            [
                3.1749999999999998,
                36.5,
                0,
                0
            ],
            [
                3.1749999999999998,
                5.6820473545236156,
                0,
                1
            ],
            [
                0.13,
                0,
                0,
                1
            ]
        ],
        "uuid": "{b54161e5-374e-4102-9f9a-11db3683d727}"
    },
    {
        "conductive": "no",
        "flutes": "0",
        "group": "Engraving",
        "name": "30º Eng Delrin Adv",
        "params": [
            {
                "millVersion": "V1",
                "pass_depth": 0.080000000000000002,
                "spindle_speed": 164000,
                "stepover": 0.45000000000000001,
                "xy_feed_rate": 1500,
                "z_feed_rate": 127
            },
            {
                "millVersion": "V2",
                "pass_depth": 0.080000000000000002,
                "spindle_speed": 164000,
                "stepover": 0.45000000000000001,
                "xy_feed_rate": 1500,
                "z_feed_rate": 127
            },
            {
                "millVersion": "Pro",
                "pass_depth": 0.080000000000000002,
                "spindle_speed": 164000,
                "stepover": 0.45000000000000001,
                "xy_feed_rate": 1500,
                "z_feed_rate": 127
            },
            {
                "millVersion": "Bantam",
                "pass_depth": 0.080000000000000002,
                "spindle_speed": 164000,
                "stepover": 0.45000000000000001,
                "xy_feed_rate": 1500,
                "z_feed_rate": 127
            },
            {
                "millVersion": "Bantam_esc",
                "pass_depth": 0.080000000000000002,
                "spindle_speed": 164000,
                "stepover": 0.45000000000000001,
                "xy_feed_rate": 1500,
                "z_feed_rate": 127
            }
        ],
        "profile": [
            [
                3.1749999999999998,
                36.5,
                0,
                0
            ],
            [
                3.1749999999999998,
                5.6820473545236156,
                0,
                1
            ],
            [
                0.13,
                0,
                0,
                1
            ]
        ],
        "uuid": "{b047a7b3-0bcc-4f66-8cea-ecb590220425}"
    },
    {
        "conductive": "no",
        "flutes": "0",
        "group": "Engraving",
        "name": "30º Eng HP Delrin ",
        "params": [
            {
                "millVersion": "V1",
                "pass_depth": 0.080000000000000002,
                "spindle_speed": 12000,
                "stepover": 0.45000000000000001,
                "xy_feed_rate": 600,
                "z_feed_rate": 40
            },
            {
                "millVersion": "V2",
                "pass_depth": 0.080000000000000002,
                "spindle_speed": 12000,
                "stepover": 0.45000000000000001,
                "xy_feed_rate": 600,
                "z_feed_rate": 40
            },
            {
                "millVersion": "Pro",
                "pass_depth": 0.080000000000000002,
                "spindle_speed": 12000,
                "stepover": 0.45000000000000001,
                "xy_feed_rate": 600,
                "z_feed_rate": 40
            },
            {
                "millVersion": "Bantam",
                "pass_depth": 0.080000000000000002,
                "spindle_speed": 12000,
                "stepover": 0.45000000000000001,
                "xy_feed_rate": 600,
                "z_feed_rate": 40
            },
            {
                "millVersion": "Bantam_esc",
                "pass_depth": 0.080000000000000002,
                "spindle_speed": 12000,
                "stepover": 0.45000000000000001,
                "xy_feed_rate": 600,
                "z_feed_rate": 40
            }
        ],
        "profile": [
            [
                3.1749999999999998,
                36.5,
                0,
                0
            ],
            [
                3.1749999999999998,
                5.7753486247128372,
                0,
                1
            ],
            [
                0.080000000000000002,
                0,
                0,
                1
            ]
        ],
        "uuid": "{b78d27e4-a5be-4f2c-b005-6661b3d0992d}"
    },
    {
        "conductive": "no",
        "flutes": "0",
        "group": "Engraving",
        "name": "30º Eng HP Delrin Adv",
        "params": [
            {
                "millVersion": "V1",
                "pass_depth": 0.080000000000000002,
                "spindle_speed": 16400,
                "stepover": 0.45000000000000001,
                "xy_feed_rate": 1500,
                "z_feed_rate": 127
            },
            {
                "millVersion": "V2",
                "pass_depth": 0.080000000000000002,
                "spindle_speed": 16400,
                "stepover": 0.45000000000000001,
                "xy_feed_rate": 1500,
                "z_feed_rate": 127
            },
            {
                "millVersion": "Pro",
                "pass_depth": 0.080000000000000002,
                "spindle_speed": 16400,
                "stepover": 0.45000000000000001,
                "xy_feed_rate": 1500,
                "z_feed_rate": 127
            },
            {
                "millVersion": "Bantam",
                "pass_depth": 0.080000000000000002,
                "spindle_speed": 16400,
                "stepover": 0.45000000000000001,
                "xy_feed_rate": 1500,
                "z_feed_rate": 127
            },
            {
                "millVersion": "Bantam_esc",
                "pass_depth": 0.080000000000000002,
                "spindle_speed": 16400,
                "stepover": 0.45000000000000001,
                "xy_feed_rate": 1500,
                "z_feed_rate": 127
            }
        ],
        "profile": [
            [
                3.1749999999999998,
                36.5,
                0,
                0
            ],
            [
                3.1749999999999998,
                5.7753486247128372,
                0,
                1
            ],
            [
                0.080000000000000002,
                0,
                0,
                1
            ]
        ],
        "uuid": "{a2f0d3af-a286-44dd-ab71-84649097f483}"
    },
    {
        "conductive": "no",
        "flutes": "0",
        "group": "Engraving",
        "name": "80º Eng Delrin ",
        "params": [
            {
                "millVersion": "V1",
                "pass_depth": 0.080000000000000002,
                "spindle_speed": 12000,
                "stepover": 0.45000000000000001,
                "xy_feed_rate": 600,
                "z_feed_rate": 40
            },
            {
                "millVersion": "V2",
                "pass_depth": 0.080000000000000002,
                "spindle_speed": 12000,
                "stepover": 0.45000000000000001,
                "xy_feed_rate": 600,
                "z_feed_rate": 40
            },
            {
                "millVersion": "Pro",
                "pass_depth": 0.080000000000000002,
                "spindle_speed": 12000,
                "stepover": 0.45000000000000001,
                "xy_feed_rate": 600,
                "z_feed_rate": 40
            },
            {
                "millVersion": "Bantam",
                "pass_depth": 0.080000000000000002,
                "spindle_speed": 12000,
                "stepover": 0.45000000000000001,
                "xy_feed_rate": 600,
                "z_feed_rate": 40
            },
            {
                "millVersion": "Bantam_esc",
                "pass_depth": 0.080000000000000002,
                "spindle_speed": 12000,
                "stepover": 0.45000000000000001,
                "xy_feed_rate": 600,
                "z_feed_rate": 40
            }
        ],
        "profile": [
            [
                3.1749999999999998,
                36.5,
                0,
                0
            ],
            [
                3.1749999999999998,
                1.814444844724685,
                0,
                1
            ],
            [
                0.13,
                0,
                0,
                1
            ]
        ],
        "uuid": "{f5ec15b7-ff53-4c75-9e6f-ee1dd7984e8d}"
    },
    {
        "conductive": "no",
        "flutes": "0",
        "group": "Engraving",
        "name": "80º Eng Delrin Adv",
        "params": [
            {
                "millVersion": "V1",
                "pass_depth": 0.080000000000000002,
                "spindle_speed": 16400,
                "stepover": 0.45000000000000001,
                "xy_feed_rate": 1500,
                "z_feed_rate": 127
            },
            {
                "millVersion": "V2",
                "pass_depth": 0.080000000000000002,
                "spindle_speed": 16400,
                "stepover": 0.45000000000000001,
                "xy_feed_rate": 1500,
                "z_feed_rate": 127
            },
            {
                "millVersion": "Pro",
                "pass_depth": 0.080000000000000002,
                "spindle_speed": 16400,
                "stepover": 0.45000000000000001,
                "xy_feed_rate": 1500,
                "z_feed_rate": 127
            },
            {
                "millVersion": "Bantam",
                "pass_depth": 0.080000000000000002,
                "spindle_speed": 16400,
                "stepover": 0.45000000000000001,
                "xy_feed_rate": 1500,
                "z_feed_rate": 127
            },
            {
                "millVersion": "Bantam_esc",
                "pass_depth": 0.080000000000000002,
                "spindle_speed": 16400,
                "stepover": 0.45000000000000001,
                "xy_feed_rate": 1500,
                "z_feed_rate": 127
            }
        ],
        "profile": [
            [
                3.1749999999999998,
                36.5,
                0,
                0
            ],
            [
                3.1749999999999998,
                1.814444844724685,
                0,
                1
            ],
            [
                0.13,
                0,
                0,
                1
            ]
        ],
        "uuid": "{d668575d-9f0d-400b-87c7-ec849c1e021c}"
    }
]
